%YAML 1.1
%TAG !u! tag:unity3d.com,2011:
--- !u!162 &1
EditorUserSettings:
  m_ObjectHideFlags: 0
  serializedVersion: 4
  m_ConfigSettings:
    RecentlyUsedScenePath-0:
      value: 22424703114646680e0b0227036c6f42211e16192f2d2835633c133af6f9
      flags: 0
    RecentlyUsedScenePath-1:
      value: 22424703114646680e0b0227036c7c1c13160a192f2d2835633c133af6f9
      flags: 0
    RecentlyUsedScenePath-2:
      value: 22424703114646680e0b0227036c78111b12373c293a15332827187df7ee3d2cfb
      flags: 0
    RecentlyUsedScenePath-3:
      value: 22424703114646680e0b0227036c6f41211e16192f2d2835633c133af6f9
      flags: 0
    RecentlyUsedScenePath-4:
      value: 22424703114646680e0b0227036c6f1c170e2b292926237e38271427fb
      flags: 0
    RecentlyUsedScenePath-5:
      value: 22424703114646680e0b0227036c6c111b07142f1f2b233e2867083debf42d
      flags: 0
    RecentlyUsedScenePath-6:
      value: 22424703114646680e0b0227036c6b19021b1d192f2d2835633c133af6f9
      flags: 0
    RecentlyUsedScenePath-7:
      value: 22424703114646680e0b0227036c72051a03111a20293f7e38271427fb
      flags: 0
    vcSharedLogLevel:
      value: 0d5e400f0650
      flags: 0
  m_VCAutomaticAdd: 1
  m_VCDebugCom: 0
  m_VCDebugCmd: 0
  m_VCDebugOut: 0
  m_SemanticMergeMode: 2
  m_VCShowFailedCheckout: 1
  m_VCOverwriteFailedCheckoutAssets: 1
  m_VCProjectOverlayIcons: 1
  m_VCHierarchyOverlayIcons: 1
  m_VCOtherOverlayIcons: 1
  m_VCAllowAsyncUpdate: 0
